date,week,population,total_ili,total_patients,total_specimins,type_a,type_b,type_unk,temperature,precipitation
1997-40-1,40,12533890,27,2342,312,0,0,312,66.85,2.97
1997-41-1,41,12533890,15,2315,407,0,0,407,54.35,3.27
1997-42-1,42,12533890,13,2140,406,1,0,405,54.35,3.27
1997-43-1,43,12533890,16,2325,435,0,0,435,54.35,3.27
1997-44-1,44,12533890,12,2396,566,0,0,566,54.35,3.27
1997-45-1,45,12533890,9,1800,648,1,0,647,37.23,1.23
1997-46-1,46,12533890,31,3645,716,1,0,715,37.23,1.23
1997-47-1,47,12533890,29,3108,902,3,0,899,37.23,1.23
1997-48-1,48,12533890,13,2255,781,13,0,768,37.23,1.23
1997-49-1,49,12533890,24,2796,913,9,0,904,37.23,1.23
1997-50-1,50,12533890,37,2403,1032,24,1,1007,30.78,1.51
1997-51-1,51,12533890,22,1819,1067,68,0,999,30.78,1.51
1997-52-1,52,12533890,20,1778,1059,87,0,972,30.78,1.51
1997-53-1,53,12533890,64,1990,1181,125,1,1055,30.78,1.51
1998-1-1,1,12598026,72,2950,1110,151,2,957,29.5,1.12
1998-2-1,2,12598026,122,3075,1126,192,2,932,29.5,1.12
1998-3-1,3,12598026,222,2643,1155,209,0,946,29.5,1.12
1998-4-1,4,12598026,318,3198,1215,184,1,1030,29.5,1.12
1998-5-1,5,12598026,295,2895,1054,151,1,902,29.5,1.12
1998-6-1,6,12598026,186,2970,1051,156,2,893,37.7,1.54
1998-7-1,7,12598026,83,2674,714,73,3,638,37.7,1.54
1998-8-1,8,12598026,73,2796,560,39,2,519,37.7,1.54
1998-9-1,9,12598026,49,2905,520,12,0,508,37.7,1.54
1998-10-1,10,12598026,20,2629,458,17,5,436,35.98,3.68
1998-11-1,11,12598026,27,2260,410,6,3,401,35.98,3.68
1998-12-1,12,12598026,4,2396,376,3,3,370,35.98,3.68
1998-13-1,13,12598026,13,2996,314,4,5,305,35.98,3.68
1998-14-1,14,12598026,14,2552,297,1,4,292,50.75,3.12
1998-15-1,15,12598026,20,2073,261,3,5,253,50.75,3.12
1998-16-1,16,12598026,10,2217,293,5,1,287,50.75,3.12
1998-17-1,17,12598026,13,2057,328,1,3,324,50.75,3.12
1998-18-1,18,12598026,11,1863,247,0,5,242,50.75,3.12
1998-19-1,19,12598026,11,1857,246,0,2,244,66,3.13
1998-20-1,20,12598026,3,1599,234,0,3,231,66,3.13
1998-21-1,21,12598026,0,0,0,0,0,0,66,3.13
1998-22-1,22,12598026,0,0,0,0,0,0,66,3.13
1998-23-1,23,12598026,0,0,0,0,0,0,69.83,5.72
1998-24-1,24,12598026,0,0,0,0,0,0,69.83,5.72
1998-25-1,25,12598026,0,0,0,0,0,0,69.83,5.72
1998-26-1,26,12598026,0,0,0,0,0,0,69.83,5.72
1998-27-1,27,12598026,0,0,0,0,0,0,76.68,5.04
1998-28-1,28,12598026,0,0,0,0,0,0,76.68,5.04
1998-29-1,29,12598026,0,0,0,0,0,0,76.68,5.04
1998-30-1,30,12598026,0,0,0,0,0,0,76.68,5.04
1998-31-1,31,12598026,0,0,0,0,0,0,76.68,5.04
1998-32-1,32,12598026,0,0,0,0,0,0,75.25,3.01
1998-33-1,33,12598026,0,0,0,0,0,0,75.25,3.01
1998-34-1,34,12598026,0,0,0,0,0,0,75.25,3.01
1998-35-1,35,12598026,0,0,0,0,0,0,75.25,3.01
1998-36-1,36,12598026,0,0,0,0,0,0,71.28,2.7
1998-37-1,37,12598026,0,0,0,0,0,0,71.28,2.7
1998-38-1,38,12598026,0,0,0,0,0,0,71.28,2.7
1998-39-1,39,12598026,0,0,0,0,0,0,71.28,2.7
1998-40-1,40,12598026,32,5989,373,1,0,372,55.48,4.41
1998-41-1,41,12598026,56,6300,354,0,0,354,55.48,4.41
1998-42-1,42,12598026,76,6673,390,0,0,390,55.48,4.41
1998-43-1,43,12598026,115,6507,518,0,4,514,55.48,4.41
1998-44-1,44,12598026,83,7242,537,1,0,536,55.48,4.41
1998-45-1,45,12598026,76,7481,599,1,0,598,44.2,2.75
1998-46-1,46,12598026,100,7610,509,1,0,508,44.2,2.75
1998-47-1,47,12598026,56,5205,493,1,0,492,44.2,2.75
1998-48-1,48,12598026,97,8016,648,1,0,647,44.2,2.75
1998-49-1,49,12598026,136,7982,599,2,3,594,32.4,0.72
1998-50-1,50,12598026,152,7455,405,9,2,394,32.4,0.72
1998-51-1,51,12598026,66,3715,401,2,3,396,32.4,0.72
1998-52-1,52,12598026,90,5460,501,7,4,490,32.4,0.72
1999-1-1,1,12657831,105,7741,719,24,10,685,26.43,1.56
1999-2-1,2,12657831,106,8863,706,60,25,621,26.43,1.56
1999-3-1,3,12657831,263,9200,733,106,28,599,26.43,1.56
1999-4-1,4,12657831,318,9550,780,123,42,615,26.43,1.56
1999-5-1,5,12657831,560,9746,1096,219,74,803,26.43,1.56
1999-6-1,6,12657831,473,9218,1117,316,72,729,38.78,1.05
1999-7-1,7,12657831,468,9314,1165,278,65,822,38.78,1.05
1999-8-1,8,12657831,316,8160,1210,315,76,819,38.78,1.05
1999-9-1,9,12657831,243,7503,1052,222,72,758,38.78,1.05
1999-10-1,10,12657831,179,6968,836,137,42,657,40.15,1.58
1999-11-1,11,12657831,179,6151,645,60,34,551,40.15,1.58
1999-12-1,12,12657831,96,6497,498,42,11,445,40.15,1.58
1999-13-1,13,12657831,86,6375,402,17,5,380,40.15,1.58
1999-14-1,14,12657831,36,5549,352,11,4,337,51.88,5.41
1999-15-1,15,12657831,37,5437,204,4,1,199,51.88,5.41
1999-16-1,16,12657831,31,4798,253,1,0,252,51.88,5.41
1999-17-1,17,12657831,34,4906,174,1,0,173,51.88,5.41
1999-18-1,18,12657831,22,3897,115,1,0,114,51.88,5.41
1999-19-1,19,12657831,22,3898,82,0,0,82,61.4,4.41
1999-20-1,20,12657831,25,4189,53,0,0,53,61.4,4.41
1999-21-1,21,12657831,0,0,24,0,0,24,61.4,4.41
1999-22-1,22,12657831,0,0,19,0,0,19,61.4,4.41
1999-23-1,23,12657831,0,0,14,0,0,14,69.85,5.17
1999-24-1,24,12657831,0,0,0,0,0,0,69.85,5.17
1999-25-1,25,12657831,0,0,0,0,0,0,69.85,5.17
1999-26-1,26,12657831,0,0,0,0,0,0,69.85,5.17
1999-27-1,27,12657831,0,0,0,0,0,0,78.33,3.06
1999-28-1,28,12657831,0,0,0,0,0,0,78.33,3.06
1999-29-1,29,12657831,0,0,0,0,0,0,78.33,3.06
1999-30-1,30,12657831,0,0,0,0,0,0,78.33,3.06
1999-31-1,31,12657831,0,0,0,0,0,0,78.33,3.06
1999-32-1,32,12657831,0,0,0,0,0,0,73.73,2.9
1999-33-1,33,12657831,0,0,0,0,0,0,73.73,2.9
1999-34-1,34,12657831,0,0,0,0,0,0,73.73,2.9
1999-35-1,35,12657831,0,0,0,0,0,0,73.73,2.9
1999-36-1,36,12657831,0,0,0,0,0,0,63.38,2.34
1999-37-1,37,12657831,0,0,0,0,0,0,63.38,2.34
1999-38-1,38,12657831,0,0,0,0,0,0,63.38,2.34
1999-39-1,39,12657831,0,0,0,0,0,0,63.38,2.34
1999-40-1,40,12657831,55,4949,406,0,0,406,53.88,0.76
1999-41-1,41,12657831,70,5066,473,1,0,472,53.88,0.76
1999-42-1,42,12657831,56,5091,501,7,0,494,53.88,0.76
1999-43-1,43,12657831,79,5872,543,2,0,541,53.88,0.76
1999-44-1,44,12657831,99,7849,689,18,0,671,53.88,0.76
1999-45-1,45,12657831,92,7945,736,12,0,724,47.93,0.83
1999-46-1,46,12657831,72,8575,804,18,0,786,47.93,0.83
1999-47-1,47,12657831,52,5616,795,33,0,762,47.93,0.83
1999-48-1,48,12657831,149,9091,1031,41,0,990,47.93,0.83
1999-49-1,49,12657831,182,8463,952,105,0,847,33.28,1.49
1999-50-1,50,12657831,346,8764,975,143,0,832,33.28,1.49
1999-51-1,51,12657831,368,6605,950,234,0,716,33.28,1.49
1999-52-1,52,12657831,568,6734,1363,394,1,968,33.28,1.49
2000-1-1,1,12943853,451,7329,1368,323,1,1044,29.13,0.71
2000-2-1,2,12943853,413,8001,1293,323,1,969,29.13,0.71
2000-3-1,3,12943853,272,7585,1025,183,0,842,29.13,0.71
2000-4-1,4,12943853,179,7909,839,81,1,757,29.13,0.71
2000-5-1,5,12943853,131,8486,671,51,0,620,29.13,0.71
2000-6-1,6,12943853,119,8453,706,29,2,675,37.68,1.68
2000-7-1,7,12943853,115,8308,615,8,2,605,37.68,1.68
2000-8-1,8,12943853,55,6472,553,6,5,542,37.68,1.68
2000-9-1,9,12943853,40,6326,450,1,0,449,37.68,1.68
2000-10-1,10,12943853,37,6272,367,2,1,364,44.88,2.32
2000-11-1,11,12943853,45,5748,365,2,0,363,44.88,2.32
2000-12-1,12,12943853,45,5256,365,6,1,358,44.88,2.32
2000-13-1,13,12943853,34,5779,314,0,1,313,44.88,2.32
2000-14-1,14,12943853,33,5247,276,1,1,274,51.58,1.61
2000-15-1,15,12943853,22,4528,281,1,1,279,51.58,1.61
2000-16-1,16,12943853,25,4298,232,0,1,231,51.58,1.61
2000-17-1,17,12943853,35,4307,251,0,2,249,51.58,1.61
2000-18-1,18,12943853,24,4277,227,0,4,223,51.58,1.61
2000-19-1,19,12943853,30,4164,207,0,0,207,64.53,3.31
2000-20-1,20,12943853,25,4059,160,0,2,158,64.53,3.31
2000-21-1,21,12943853,0,0,210,1,1,208,64.53,3.31
2000-22-1,22,12943853,0,0,159,2,0,157,64.53,3.31
2000-23-1,23,12943853,0,0,155,1,1,153,69.63,5.11
2000-24-1,24,12943853,0,0,169,0,1,168,69.63,5.11
2000-25-1,25,12943853,0,0,131,0,0,131,69.63,5.11
2000-26-1,26,12943853,0,0,146,0,0,146,69.63,5.11
2000-27-1,27,12943853,0,0,0,0,0,0,75.63,3.79
2000-28-1,28,12943853,0,0,0,0,0,0,75.63,3.79
2000-29-1,29,12943853,0,0,0,0,0,0,75.63,3.79
2000-30-1,30,12943853,0,0,0,0,0,0,75.63,3.79
2000-31-1,31,12943853,0,0,0,0,0,0,75.63,3.79
2000-32-1,32,12943853,0,0,0,0,0,0,77.9,1.79
2000-33-1,33,12943853,0,0,0,0,0,0,77.9,1.79
2000-34-1,34,12943853,0,0,0,0,0,0,77.9,1.79
2000-35-1,35,12943853,0,0,0,0,0,0,77.9,1.79
2000-36-1,36,12943853,0,0,0,0,0,0,67.3,1.86
2000-37-1,37,12943853,0,0,0,0,0,0,67.3,1.86
2000-38-1,38,12943853,0,0,0,0,0,0,67.3,1.86
2000-39-1,39,12943853,0,0,0,0,0,0,67.3,1.86
2000-40-1,40,12943853,97,5888,275,0,0,275,56.75,2.74
2000-41-1,41,12943853,120,6555,320,0,0,320,56.75,2.74
2000-42-1,42,12943853,97,8129,345,2,1,342,56.75,2.74
2000-43-1,43,12943853,132,8693,381,7,1,373,56.75,2.74
2000-44-1,44,12943853,57,9222,462,10,1,451,56.75,2.74
2000-45-1,45,12943853,125,10126,433,23,5,405,34.25,1.91
2000-46-1,46,12943853,131,10309,578,22,7,549,34.25,1.91
2000-47-1,47,12943853,107,6966,689,47,12,630,34.25,1.91
2000-48-1,48,12943853,68,10783,692,50,16,626,34.25,1.91
2000-49-1,49,12943853,136,10476,701,82,17,602,18.5,1
2000-50-1,50,12943853,119,8241,977,121,19,837,18.5,1
2000-51-1,51,12943853,89,8605,906,166,38,702,18.5,1
2000-52-1,52,12943853,105,6705,818,129,48,641,18.5,1
2001-1-1,1,12995137,92,8280,783,73,47,663,27.18,1.42
2001-2-1,2,12995137,235,11776,897,91,95,711,27.18,1.42
2001-3-1,3,12995137,372,11204,891,72,113,706,27.18,1.42
2001-4-1,4,12995137,465,13070,949,60,110,779,27.18,1.42
2001-5-1,5,12995137,377,12135,901,38,114,749,27.18,1.42
2001-6-1,6,12995137,315,11434,873,42,111,720,26.2,2.5
2001-7-1,7,12995137,189,10004,749,20,80,649,26.2,2.5
2001-8-1,8,12995137,244,13304,725,11,73,641,26.2,2.5
2001-9-1,9,12995137,166,11513,563,2,28,533,26.2,2.5
2001-10-1,10,12995137,139,12008,511,4,21,486,36.8,1.3
2001-11-1,11,12995137,77,11200,441,1,8,432,36.8,1.3
2001-12-1,12,12995137,87,9173,394,0,3,391,36.8,1.3
2001-13-1,13,12995137,62,8396,403,0,4,399,36.8,1.3
2001-14-1,14,12995137,68,8219,388,0,0,388,55.53,3.05
2001-15-1,15,12995137,49,7319,303,1,0,302,55.53,3.05
2001-16-1,16,12995137,43,7681,291,0,2,289,55.53,3.05
2001-17-1,17,12995137,43,6637,247,0,0,247,55.53,3.05
2001-18-1,18,12995137,34,6637,234,0,0,234,55.53,3.05
2001-19-1,19,12995137,35,6419,219,1,1,217,62.93,5.54
2001-20-1,20,12995137,35,4550,255,0,0,255,62.93,5.54
2001-21-1,21,12995137,0,0,212,0,0,212,62.93,5.54
2001-22-1,22,12995137,0,0,194,0,0,194,62.93,5.54
2001-23-1,23,12995137,0,0,28,0,0,28,70.35,3.97
2001-24-1,24,12995137,0,0,0,0,0,0,70.35,3.97
2001-25-1,25,12995137,0,0,0,0,0,0,70.35,3.97
2001-26-1,26,12995137,0,0,0,0,0,0,70.35,3.97
2001-27-1,27,12995137,0,0,0,0,0,0,78.53,3.89
2001-28-1,28,12995137,0,0,0,0,0,0,78.53,3.89
2001-29-1,29,12995137,0,0,0,0,0,0,78.53,3.89
2001-30-1,30,12995137,0,0,0,0,0,0,78.53,3.89
2001-31-1,31,12995137,0,0,0,0,0,0,78.53,3.89
2001-32-1,32,12995137,0,0,0,0,0,0,75.65,2.63
2001-33-1,33,12995137,0,0,0,0,0,0,75.65,2.63
2001-34-1,34,12995137,0,0,0,0,0,0,75.65,2.63
2001-35-1,35,12995137,0,0,0,0,0,0,75.65,2.63
2001-36-1,36,12995137,0,0,0,0,0,0,64.75,3.47
2001-37-1,37,12995137,0,0,0,0,0,0,64.75,3.47
2001-38-1,38,12995137,0,0,0,0,0,0,64.75,3.47
2001-39-1,39,12995137,0,0,0,0,0,0,64.75,3.47
2001-40-1,40,12995137,145,8781,132,2,1,129,53.3,2.26
2001-41-1,41,12995137,116,10178,117,0,0,117,53.3,2.26
2001-42-1,42,12995137,110,9936,161,1,0,160,53.3,2.26
2001-43-1,43,12995137,128,10115,160,1,0,159,53.3,2.26
2001-44-1,44,12995137,156,9966,205,4,0,201,53.3,2.26
2001-45-1,45,12995137,125,9688,214,2,0,212,48.05,1.57
2001-46-1,46,12995137,125,9578,218,4,0,214,48.05,1.57
2001-47-1,47,12995137,107,7300,161,2,1,158,48.05,1.57
2001-48-1,48,12995137,117,9595,207,5,0,202,48.05,1.57
2001-49-1,49,12995137,99,9283,221,8,0,213,34.1,1.03
2001-50-1,50,12995137,98,9998,329,26,0,303,34.1,1.03
2001-51-1,51,12995137,96,8371,407,34,0,373,34.1,1.03
2001-52-1,52,12995137,77,6421,334,25,0,309,34.1,1.03
2002-1-1,1,13050886,71,6667,491,83,0,408,31.75,1.08
2002-2-1,2,13050886,120,9354,544,97,0,447,31.75,1.08
2002-3-1,3,13050886,122,10151,677,239,1,437,31.75,1.08
2002-4-1,4,13050886,269,10556,800,275,1,524,31.75,1.08
2002-5-1,5,13050886,325,9663,835,281,5,549,31.75,1.08
2002-6-1,6,13050886,400,11577,510,111,2,397,33.7,0.75
2002-7-1,7,13050886,469,11732,670,202,2,466,33.7,0.75
2002-8-1,8,13050886,356,11249,513,98,0,415,33.7,0.75
2002-9-1,9,13050886,296,10544,457,69,1,387,33.7,0.75
2002-10-1,10,13050886,262,10211,302,35,4,263,35.2,1.51
2002-11-1,11,13050886,157,9192,279,42,4,233,35.2,1.51
2002-12-1,12,13050886,129,8775,259,15,8,236,35.2,1.51
2002-13-1,13,13050886,81,8382,216,13,8,195,35.2,1.51
2002-14-1,14,13050886,110,9072,208,5,9,194,53.13,3.02
2002-15-1,15,13050886,91,9495,162,2,13,147,53.13,3.02
2002-16-1,16,13050886,87,9114,152,0,10,142,53.13,3.02
2002-17-1,17,13050886,71,9109,151,0,18,133,53.13,3.02
2002-18-1,18,13050886,66,8386,168,0,10,158,53.13,3.02
2002-19-1,19,13050886,57,8278,124,0,13,111,59.08,5.01
2002-20-1,20,13050886,65,8165,136,0,13,123,59.08,5.01
2002-21-1,21,13050886,0,0,108,0,12,96,59.08,5.01
2002-22-1,22,13050886,0,0,95,0,7,88,59.08,5.01
2002-23-1,23,13050886,0,0,69,0,3,66,74.48,2.67
2002-24-1,24,13050886,0,0,53,0,2,51,74.48,2.67
2002-25-1,25,13050886,0,0,5,0,1,4,74.48,2.67
2002-26-1,26,13050886,0,0,6,0,0,6,74.48,2.67
2002-27-1,27,13050886,0,0,12,0,0,12,78.63,2.55
2002-28-1,28,13050886,0,0,62,0,1,61,78.63,2.55
2002-29-1,29,13050886,0,0,41,0,0,41,78.63,2.55
2002-30-1,30,13050886,0,0,44,0,0,44,78.63,2.55
2002-31-1,31,13050886,0,0,56,0,0,56,78.63,2.55
2002-32-1,32,13050886,0,0,47,0,0,47,74.8,4.04
2002-33-1,33,13050886,0,0,38,0,0,38,74.8,4.04
2002-34-1,34,13050886,0,0,49,0,0,49,74.8,4.04
2002-35-1,35,13050886,0,0,73,0,1,72,74.8,4.04
2002-36-1,36,13050886,0,0,66,0,0,66,67.7,1.64
2002-37-1,37,13050886,0,0,96,0,0,96,67.7,1.64
2002-38-1,38,13050886,0,0,74,1,0,73,67.7,1.64
2002-39-1,39,13050886,0,0,52,0,0,52,67.7,1.64
2002-40-1,40,13050886,111,11078,178,0,0,178,48.55,3.55
2002-41-1,41,13050886,89,10975,200,0,0,200,48.55,3.55
2002-42-1,42,13050886,106,10879,194,0,0,194,48.55,3.55
2002-43-1,43,13050886,107,11671,247,0,0,247,48.55,3.55
2002-44-1,44,13050886,128,12012,285,1,1,283,48.55,3.55
2002-45-1,45,13050886,165,12094,334,0,3,331,39.05,0.37
2002-46-1,46,13050886,147,11014,357,0,0,357,39.05,0.37
2002-47-1,47,13050886,109,11008,395,0,13,382,39.05,0.37
2002-48-1,48,13050886,86,8420,378,3,6,369,39.05,0.37
2002-49-1,49,13050886,166,12559,480,4,24,452,32.98,0.78
2002-50-1,50,13050886,148,11479,525,12,66,447,32.98,0.78
2002-51-1,51,13050886,208,11915,680,16,128,536,32.98,0.78
2002-52-1,52,13050886,194,6533,466,10,82,374,32.98,0.78
2003-1-1,1,13113049,229,8165,469,13,46,410,26.3,0.38
2003-2-1,2,13113049,213,10860,525,34,78,413,26.3,0.38
2003-3-1,3,13113049,286,10445,580,36,95,449,26.3,0.38
2003-4-1,4,13113049,434,11800,633,72,107,454,26.3,0.38
2003-5-1,5,13113049,476,12893,795,118,114,563,26.3,0.38
2003-6-1,6,13113049,362,12348,822,158,122,542,26.98,1.28
2003-7-1,7,13113049,232,11863,515,94,66,355,26.98,1.28
2003-8-1,8,13113049,201,12278,396,66,23,307,26.98,1.28
2003-9-1,9,13113049,229,11708,315,36,17,262,26.98,1.28
2003-10-1,10,13113049,138,11982,293,36,22,235,40.65,1.72
2003-11-1,11,13113049,129,11842,285,20,10,255,40.65,1.72
2003-12-1,12,13113049,110,10891,343,14,3,326,40.65,1.72
2003-13-1,13,13113049,101,9453,284,4,3,277,40.65,1.72
2003-14-1,14,13113049,89,10471,242,4,4,234,53.43,3.44
2003-15-1,15,13113049,82,10052,219,4,0,215,53.43,3.44
2003-16-1,16,13113049,83,9760,186,2,0,184,53.43,3.44
2003-17-1,17,13113049,83,9616,202,3,1,198,53.43,3.44
2003-18-1,18,13113049,84,9622,130,3,0,127,53.43,3.44
2003-19-1,19,13113049,60,8165,117,0,0,117,60.43,4.06
2003-20-1,20,13113049,82,7814,96,1,0,95,60.43,4.06
2003-21-1,21,13113049,33,5810,86,2,0,84,60.43,4.06
2003-22-1,22,13113049,55,5119,89,1,1,87,60.43,4.06
2003-23-1,23,13113049,34,5148,84,0,0,84,68.25,4.41
2003-24-1,24,13113049,29,4857,74,0,0,74,68.25,4.41
2003-25-1,25,13113049,23,4688,90,0,0,90,68.25,4.41
2003-26-1,26,13113049,22,4659,92,1,0,91,68.25,4.41
2003-27-1,27,13113049,18,3477,47,0,0,47,77.35,2.22
2003-28-1,28,13113049,25,4528,77,0,0,77,77.35,2.22
2003-29-1,29,13113049,23,4246,78,0,0,78,77.35,2.22
2003-30-1,30,13113049,16,4178,57,0,0,57,77.35,2.22
2003-31-1,31,13113049,22,4495,46,0,0,46,77.35,2.22
2003-32-1,32,13113049,20,4096,56,0,0,56,77.15,2.61
2003-33-1,33,13113049,17,4938,94,1,0,93,77.15,2.61
2003-34-1,34,13113049,20,5232,51,0,0,51,77.15,2.61
2003-35-1,35,13113049,22,4977,57,0,0,57,77.15,2.61
2003-36-1,36,13113049,20,4385,100,2,0,98,63.03,3.26
2003-37-1,37,13113049,46,5762,99,0,0,99,63.03,3.26
2003-38-1,38,13113049,55,5935,122,1,0,121,63.03,3.26
2003-39-1,39,13113049,40,5166,40,0,0,40,63.03,3.26
2003-40-1,40,13113049,94,9507,246,20,0,226,63.03,3.26
2003-41-1,41,13113049,154,10801,399,75,0,324,55.63,1.3
2003-42-1,42,13113049,114,11656,763,240,0,523,55.63,1.3
2003-43-1,43,13113049,143,12612,1100,430,0,670,55.63,1.3
2003-44-1,44,13113049,180,13713,1061,466,0,595,55.63,1.3
2003-45-1,45,13113049,156,13561,1455,612,3,840,39.78,2.28
2003-46-1,46,13113049,235,14504,1586,638,2,946,39.78,2.28
2003-47-1,47,13113049,238,13473,1708,688,2,1018,39.78,2.28
2003-48-1,48,13113049,489,9980,1385,501,1,883,39.78,2.28
2003-49-1,49,13113049,879,15544,1561,456,4,1101,39.78,2.28
2003-50-1,50,13113049,1861,15279,1557,444,2,1111,32.55,1.52
2003-51-1,51,13113049,1180,12019,1483,334,0,1149,32.55,1.52
2003-52-1,52,13113049,798,7792,1100,114,2,984,32.55,1.52
2003-53-1,53,13113049,422,10029,968,80,0,888,32.55,1.52
2004-1-1,1,13185119,219,12221,782,35,1,746,25.48,1.11
2004-2-1,2,13185119,145,13061,676,17,0,659,25.48,1.11
2004-3-1,3,13185119,155,11998,592,12,0,580,25.48,1.11
2004-4-1,4,13185119,139,11912,576,12,0,564,25.48,1.11
2004-5-1,5,13185119,114,12298,550,7,0,543,25.48,1.11
2004-6-1,6,13185119,138,13256,524,2,0,522,28.48,0.93
2004-7-1,7,13185119,128,12861,475,1,0,474,28.48,0.93
2004-8-1,8,13185119,117,12719,352,1,0,351,28.48,0.93
2004-9-1,9,13185119,106,11396,384,0,1,383,28.48,0.93
2004-10-1,10,13185119,122,11437,297,0,1,296,45.35,3.52
2004-11-1,11,13185119,59,10018,287,1,0,286,45.35,3.52
2004-12-1,12,13185119,76,8911,281,0,0,281,45.35,3.52
2004-13-1,13,13185119,38,10718,230,0,0,230,45.35,3.52
2004-14-1,14,13185119,44,9943,233,0,0,233,53.18,2.39
2004-15-1,15,13185119,43,8182,191,0,1,190,53.18,2.39
2004-16-1,16,13185119,25,8569,169,0,0,169,53.18,2.39
2004-17-1,17,13185119,35,8461,180,2,0,178,53.18,2.39
2004-18-1,18,13185119,63,7793,126,0,0,126,53.18,2.39
2004-19-1,19,13185119,42,7918,159,0,0,159,63.75,4.79
2004-20-1,20,13185119,34,6834,131,0,0,131,63.75,4.79
2004-21-1,21,13185119,31,6041,116,0,0,116,63.75,4.79
2004-22-1,22,13185119,13,5101,91,0,0,91,63.75,4.79
2004-23-1,23,13185119,73,5934,87,1,0,86,68.55,3.8
2004-24-1,24,13185119,17,6332,70,0,0,70,68.55,3.8
2004-25-1,25,13185119,31,6131,75,0,0,75,68.55,3.8
2004-26-1,26,13185119,25,5910,51,1,0,50,68.55,3.8
2004-27-1,27,13185119,12,4341,39,0,0,39,72.93,4.98
2004-28-1,28,13185119,26,5771,48,0,0,48,72.93,4.98
2004-29-1,29,13185119,22,5966,61,0,0,61,72.93,4.98
2004-30-1,30,13185119,20,5319,53,0,0,53,72.93,4.98
2004-31-1,31,13185119,33,5257,39,1,0,38,72.93,4.98
2004-32-1,32,13185119,28,5732,52,0,0,52,69.53,3.44
2004-33-1,33,13185119,32,5726,83,0,0,83,69.53,3.44
2004-34-1,34,13185119,33,6462,109,0,0,109,69.53,3.44
2004-35-1,35,13185119,35,6104,83,1,0,82,69.53,3.44
2004-36-1,36,13185119,34,5733,99,0,0,99,67.98,2.36
2004-37-1,37,13185119,40,6899,111,0,0,111,67.98,2.36
2004-38-1,38,13185119,36,6048,115,0,0,115,67.98,2.36
2004-39-1,39,13185119,60,6292,119,0,0,119,67.98,2.36
2004-40-1,40,13185119,86,14841,207,0,0,207,55.1,2.58
2004-41-1,41,13185119,82,14771,218,1,0,217,55.1,2.58
2004-42-1,42,13185119,118,16406,287,0,2,285,55.1,2.58
2004-43-1,43,13185119,104,15032,338,0,0,338,55.1,2.58
2004-44-1,44,13185119,147,16674,374,0,0,374,55.1,2.58
2004-45-1,45,13185119,149,15948,511,0,0,511,42.83,2.97
2004-46-1,46,13185119,143,15272,592,0,1,591,42.83,2.97
2004-47-1,47,13185119,112,10896,604,1,0,603,42.83,2.97
2004-48-1,48,13185119,130,17327,736,2,0,734,42.83,2.97
2004-49-1,49,13185119,144,16766,698,3,1,694,31.95,0.61
2004-50-1,50,13185119,170,16124,710,8,0,702,31.95,0.61
2004-51-1,51,13185119,192,12227,608,7,4,597,31.95,0.61
2004-52-1,52,13185119,179,11913,699,39,17,643,31.95,0.61
2005-1-1,1,13261550,202,13484,709,60,17,632,26.3,2.14
2005-2-1,2,13261550,237,15365,818,90,26,702,26.3,2.14
2005-3-1,3,13261550,410,17107,917,156,32,729,26.3,2.14
2005-4-1,4,13261550,571,18013,1243,258,52,933,26.3,2.14
2005-5-1,5,13261550,834,19131,1585,477,97,1011,26.3,2.14
2005-6-1,6,13261550,978,19569,1832,540,87,1205,36.23,1.57
2005-7-1,7,13261550,689,17714,1863,579,85,1199,36.23,1.57
2005-8-1,8,13261550,532,17081,1554,450,80,1024,36.23,1.57
2005-9-1,9,13261550,391,15808,1120,224,37,859,36.23,1.57
2005-10-1,10,13261550,260,15797,905,112,14,779,40.88,1.38
2005-11-1,11,13261550,232,15018,663,52,19,592,40.88,1.38
2005-12-1,12,13261550,159,12333,628,20,19,589,40.88,1.38
2005-13-1,13,13261550,104,13758,482,11,14,457,40.88,1.38
2005-14-1,14,13261550,77,13782,363,10,8,345,53.73,3
2005-15-1,15,13261550,27,12542,332,3,2,327,53.73,3
2005-16-1,16,13261550,29,12413,238,1,1,236,53.73,3
2005-17-1,17,13261550,10,11478,232,0,0,232,53.73,3
2005-18-1,18,13261550,43,10808,215,0,0,215,53.73,3
2005-19-1,19,13261550,19,10377,173,0,1,172,60.73,3.13
2005-20-1,20,13261550,12,7498,148,0,0,148,60.73,3.13
2005-21-1,21,13261550,4,6532,148,0,1,147,60.73,3.13
2005-22-1,22,13261550,7,4442,109,0,0,109,60.73,3.13
2005-23-1,23,13261550,0,5895,148,1,0,147,73.13,5.14
2005-24-1,24,13261550,0,5984,114,0,0,114,73.13,5.14
2005-25-1,25,13261550,0,5893,98,0,0,98,73.13,5.14
2005-26-1,26,13261550,4,4457,103,0,0,103,73.13,5.14
2005-27-1,27,13261550,2,3800,72,0,2,70,76.83,2.83
2005-28-1,28,13261550,0,4448,83,0,2,81,76.83,2.83
2005-29-1,29,13261550,5,4826,72,0,0,72,76.83,2.83
2005-30-1,30,13261550,3,4700,83,0,0,83,76.83,2.83
2005-31-1,31,13261550,1,3821,63,0,0,63,76.83,2.83
2005-32-1,32,13261550,0,3806,81,0,0,81,74.8,4.19
2005-33-1,33,13261550,2,4876,92,4,0,88,74.8,4.19
2005-34-1,34,13261550,3,5743,87,0,0,87,74.8,4.19
2005-35-1,35,13261550,5,6037,80,1,0,79,74.8,4.19
2005-36-1,36,13261550,2,5175,62,0,0,62,69.83,2.47
2005-37-1,37,13261550,4,5984,86,0,0,86,69.83,2.47
2005-38-1,38,13261550,17,5604,69,0,0,69,69.83,2.47
2005-39-1,39,13261550,8,6263,32,0,0,32,69.83,2.47
2005-40-1,40,13261550,65,14532,157,0,0,157,54.78,1.68
2005-41-1,41,13261550,39,15840,180,1,1,178,54.78,1.68
2005-42-1,42,13261550,50,17412,157,4,0,153,54.78,1.68
2005-43-1,43,13261550,74,17935,339,3,0,336,54.78,1.68
2005-44-1,44,13261550,61,18343,241,2,0,239,54.78,1.68
2005-45-1,45,13261550,66,20027,378,2,1,375,43.6,1.64
2005-46-1,46,13261550,79,19325,498,11,0,487,43.6,1.64
2005-47-1,47,13261550,71,13347,454,9,1,444,43.6,1.64
2005-48-1,48,13261550,101,17870,430,12,0,418,43.6,1.64
2005-49-1,49,13261550,62,15477,679,39,0,640,26.53,0.7
2005-50-1,50,13261550,74,17485,590,55,0,535,26.53,0.7
2005-51-1,51,13261550,117,14219,1088,182,2,904,26.53,0.7
2005-52-1,52,13261550,149,12719,1067,170,4,893,26.53,0.7
2006-1-1,1,13360972,130,14057,1091,192,7,892,38,0.93
2006-2-1,2,13360972,220,17955,1196,225,11,960,38,0.93
2006-3-1,3,13360972,296,18046,1122,242,18,862,38,0.93
2006-4-1,4,13360972,392,17757,1133,225,19,889,38,0.93
2006-5-1,5,13360972,436,19026,1004,178,37,789,38,0.93
2006-6-1,6,13360972,473,18699,1089,162,73,854,30.48,0.27
2006-7-1,7,13360972,435,18387,1189,170,103,916,30.48,0.27
2006-8-1,8,13360972,479,18100,1080,121,131,828,30.48,0.27
2006-9-1,9,13360972,354,17004,1058,104,158,796,30.48,0.27
2006-10-1,10,13360972,270,16995,960,87,106,767,41.2,2.74
2006-11-1,11,13360972,152,14653,787,60,101,626,41.2,2.74
2006-12-1,12,13360972,135,11942,686,32,41,613,41.2,2.74
2006-13-1,13,13360972,101,12299,593,50,43,500,41.2,2.74
2006-14-1,14,13360972,55,13050,505,22,19,464,56.9,3.17
2006-15-1,15,13360972,48,13040,477,24,36,417,56.9,3.17
2006-16-1,16,13360972,30,12008,485,10,27,448,56.9,3.17
2006-17-1,17,13360972,28,11282,469,8,38,423,56.9,3.17
2006-18-1,18,13360972,31,10725,398,9,45,344,56.9,3.17
2006-19-1,19,13360972,43,9897,442,3,34,405,63.05,2.5
2006-20-1,20,13360972,25,8740,443,3,37,403,63.05,2.5
2006-21-1,21,13360972,25,7329,420,10,45,365,63.05,2.5
2006-22-1,22,13360972,28,5344,288,6,16,266,63.05,2.5
2006-23-1,23,13360972,25,6439,223,2,15,206,72.78,2.95
2006-24-1,24,13360972,20,6495,168,0,2,166,72.78,2.95
2006-25-1,25,13360972,23,6374,103,0,2,101,72.78,2.95
2006-26-1,26,13360972,23,5231,66,0,1,65,72.78,2.95
2006-27-1,27,13360972,17,4784,135,0,1,134,78.35,2.76
2006-28-1,28,13360972,17,5310,111,0,0,111,78.35,2.76
2006-29-1,29,13360972,19,5751,140,0,0,140,78.35,2.76
2006-30-1,30,13360972,26,5643,109,0,1,108,78.35,2.76
2006-31-1,31,13360972,27,5545,113,0,0,113,78.35,2.76
2006-32-1,32,13360972,22,6322,139,1,1,137,75.55,4.7
2006-33-1,33,13360972,22,5797,114,0,0,114,75.55,4.7
2006-34-1,34,13360972,25,6167,124,0,1,123,75.55,4.7
2006-35-1,35,13360972,27,6078,139,0,0,139,75.55,4.7
2006-36-1,36,13360972,28,5889,159,0,0,159,62.03,3.11
2006-37-1,37,13360972,20,6740,187,0,0,187,62.03,3.11
2006-38-1,38,13360972,24,5921,122,1,0,121,62.03,3.11
2006-39-1,39,13360972,30,6437,174,0,0,174,62.03,3.11
2006-40-1,40,13360972,89,18181,371,0,4,367,51.2,2.13
2006-41-1,41,13360972,86,20072,451,3,3,445,51.2,2.13
2006-42-1,42,13360972,138,21334,549,1,8,540,51.2,2.13
2006-43-1,43,13360972,149,23492,659,5,14,640,51.2,2.13
2006-44-1,44,13360972,155,23004,748,9,16,723,51.2,2.13
2006-45-1,45,13360972,154,21467,896,15,8,873,42,1.5
2006-46-1,46,13360972,157,19341,1014,6,5,1003,42,1.5
2006-47-1,47,13360972,132,15823,945,16,13,916,42,1.5
2006-48-1,48,13360972,220,19052,1082,13,8,1061,42,1.5
2006-49-1,49,13360972,262,20097,1090,23,16,1051,33.85,2.44
2006-50-1,50,13360972,296,19463,1354,76,28,1250,33.85,2.44
2006-51-1,51,13360972,378,16688,1568,119,27,1422,33.85,2.44
2006-52-1,52,13360972,375,14140,1492,120,20,1352,33.85,2.44
2007-1-1,1,13454049,335,14941,1479,109,25,1345,25.48,1.31
2007-2-1,2,13454049,318,20350,1461,143,16,1302,25.48,1.31
2007-3-1,3,13454049,346,20585,1446,206,18,1222,25.48,1.31
2007-4-1,4,13454049,536,23896,1895,404,35,1456,25.48,1.31
2007-5-1,5,13454049,678,22430,2383,608,44,1731,25.48,1.31
2007-6-1,6,13454049,672,24682,2534,796,151,1587,24.5,1.47
2007-7-1,7,13454049,575,21618,2767,731,100,1936,24.5,1.47
2007-8-1,8,13454049,572,20226,2852,664,154,2034,24.5,1.47
2007-9-1,9,13454049,344,18661,2258,441,162,1655,24.5,1.47
2007-10-1,10,13454049,272,19463,1772,290,117,1365,48.18,2.81
2007-11-1,11,13454049,266,17083,1349,131,84,1134,48.18,2.81
2007-12-1,12,13454049,149,14751,1003,80,36,887,48.18,2.81
2007-13-1,13,13454049,103,13536,957,43,10,904,48.18,2.81
2007-14-1,14,13454049,93,15263,592,20,6,566,49.08,3.77
2007-15-1,15,13454049,99,14327,559,27,6,526,49.08,3.77
2007-16-1,16,13454049,95,13456,582,14,3,565,49.08,3.77
2007-17-1,17,13454049,83,12637,389,13,0,376,49.08,3.77
2007-18-1,18,13454049,65,11607,363,6,2,355,49.08,3.77
2007-19-1,19,13454049,84,10675,254,5,1,248,65.25,5.42
2007-20-1,20,13454049,63,10232,318,1,1,316,65.25,5.42
2007-21-1,21,13454049,20,9150,211,2,0,209,65.25,5.42
2007-22-1,22,13454049,20,6851,135,2,2,131,65.25,5.42
2007-23-1,23,13454049,14,6104,202,2,0,200,71.33,4.25
2007-24-1,24,13454049,10,7451,202,1,0,201,71.33,4.25
2007-25-1,25,13454049,12,6437,143,0,0,143,71.33,4.25
2007-26-1,26,13454049,13,6198,162,1,1,160,71.33,4.25
2007-27-1,27,13454049,14,5485,137,0,0,137,75.93,2.88
2007-28-1,28,13454049,11,6468,147,2,0,145,75.93,2.88
2007-29-1,29,13454049,18,6976,149,1,0,148,75.93,2.88
2007-30-1,30,13454049,14,6662,151,0,0,151,75.93,2.88
2007-31-1,31,13454049,10,5704,137,0,0,137,75.93,2.88
2007-32-1,32,13454049,14,6553,146,4,1,141,78.15,4.94
2007-33-1,33,13454049,13,5822,145,2,0,143,78.15,4.94
2007-34-1,34,13454049,11,7087,121,2,0,119,78.15,4.94
2007-35-1,35,13454049,15,6825,135,1,0,134,78.15,4.94
2007-36-1,36,13454049,17,7510,131,1,0,130,67.6,2.43
2007-37-1,37,13454049,30,6812,126,0,0,126,67.6,2.43
2007-38-1,38,13454049,25,5502,147,1,0,146,67.6,2.43
2007-39-1,39,13454049,18,5169,147,2,0,145,67.6,2.43
2007-40-1,40,13454049,72,14239,392,2,0,390,57.15,3.74
2007-41-1,41,13454049,48,14548,470,11,0,459,57.15,3.74
2007-42-1,42,13454049,101,16524,558,9,0,549,57.15,3.74
2007-43-1,43,13454049,116,16644,672,11,0,661,57.15,3.74
2007-44-1,44,13454049,165,17771,814,20,1,793,57.15,3.74
2007-45-1,45,13454049,103,17833,919,31,2,886,41.5,0.39
2007-46-1,46,13454049,101,14631,988,32,0,956,41.5,0.39
2007-47-1,47,13454049,104,14008,1004,63,2,939,41.5,0.39
2007-48-1,48,13454049,120,18362,1150,58,1,1091,41.5,0.39
2007-49-1,49,13454049,175,17299,1257,84,4,1169,26.2,2.57
2007-50-1,50,13454049,174,12399,1352,78,5,1269,26.2,2.57
2007-51-1,51,13454049,113,11786,1540,119,11,1410,26.2,2.57
2007-52-1,52,13454049,156,8311,1697,137,8,1552,26.2,2.57
2008-1-1,1,13545104,181,12876,1755,201,17,1537,24.68,0.7
2008-2-1,2,13545104,235,15884,1766,306,24,1436,24.68,0.7
2008-3-1,3,13545104,267,16964,1983,460,39,1484,24.68,0.7
2008-4-1,4,13545104,416,17218,2835,767,73,1995,24.68,0.7
2008-5-1,5,13545104,818,18870,3425,1057,130,2238,24.68,0.7
2008-6-1,6,13545104,1083,19230,3726,1126,181,2419,26.63,1.99
2008-7-1,7,13545104,1330,19339,3176,813,207,2156,26.63,1.99
2008-8-1,8,13545104,1443,19476,3196,626,245,2325,26.63,1.99
2008-9-1,9,13545104,1316,18662,3010,440,263,2307,26.63,1.99
2008-10-1,10,13545104,894,17604,2422,199,243,1980,39.1,2.59
2008-11-1,11,13545104,604,16606,1979,85,180,1714,39.1,2.59
2008-12-1,12,13545104,391,14813,1393,50,107,1236,39.1,2.59
2008-13-1,13,13545104,367,15929,1076,32,48,996,39.1,2.59
2008-14-1,14,13545104,307,16391,802,18,26,758,48.33,4.54
2008-15-1,15,13545104,171,15000,685,14,21,650,48.33,4.54
2008-16-1,16,13545104,152,13982,519,5,12,502,48.33,4.54
2008-17-1,17,13545104,105,13166,489,4,3,482,48.33,4.54
2008-18-1,18,13545104,62,10065,373,7,7,359,48.33,4.54
2008-19-1,19,13545104,55,9408,295,4,3,288,59.78,5.52
2008-20-1,20,13545104,34,9453,375,3,2,370,59.78,5.52
2008-21-1,21,13545104,40,8515,299,2,1,296,59.78,5.52
2008-22-1,22,13545104,23,5533,239,1,3,235,59.78,5.52
2008-23-1,23,13545104,26,5187,196,1,0,195,71.03,6.21
2008-24-1,24,13545104,26,5892,287,0,0,287,71.03,6.21
2008-25-1,25,13545104,25,5406,158,0,0,158,71.03,6.21
2008-26-1,26,13545104,32,5217,158,0,0,158,71.03,6.21
2008-27-1,27,13545104,27,4209,143,0,0,143,75.83,4.67
2008-28-1,28,13545104,29,5652,177,0,0,177,75.83,4.67
2008-29-1,29,13545104,23,5001,121,1,0,120,75.83,4.67
2008-30-1,30,13545104,29,5303,140,1,0,139,75.83,4.67
2008-31-1,31,13545104,23,3515,145,0,0,145,75.83,4.67
2008-32-1,32,13545104,27,3934,162,1,0,161,72.6,2.59
2008-33-1,33,13545104,22,4447,161,0,0,161,72.6,2.59
2008-34-1,34,13545104,18,4753,168,2,0,166,72.6,2.59
2008-35-1,35,13545104,17,4977,212,0,0,212,72.6,2.59
2008-36-1,36,13545104,24,3877,182,1,0,181,64.83,4.75
2008-37-1,37,13545104,36,5056,243,1,0,242,64.83,4.75
2008-38-1,38,13545104,26,5306,264,2,0,262,64.83,4.75
2008-39-1,39,13545104,22,4878,299,3,0,296,64.83,4.75
2008-40-1,40,13545104,73,14562,162,0,0,162,64.83,4.75
2008-41-1,41,13545104,53,12878,179,0,0,179,53,3.75
2008-42-1,42,13545104,100,16697,174,0,0,174,53,3.75
2008-43-1,43,13545104,70,15973,188,0,0,188,53,3.75
2008-44-1,44,13545104,43,15114,201,0,0,201,53,3.75
2008-45-1,45,13545104,40,15871,257,0,0,257,41.13,1.27
2008-46-1,46,13545104,61,12600,286,0,0,286,41.13,1.27
2008-47-1,47,13545104,106,15721,302,0,0,302,41.13,1.27
2008-48-1,48,13545104,54,11309,311,0,0,311,41.13,1.27
2008-49-1,49,13545104,48,15804,350,2,0,348,41.13,1.27
2008-50-1,50,13545104,43,15217,354,2,0,352,24.95,1.55
2008-51-1,51,13545104,69,10741,431,5,0,426,24.95,1.55
2008-52-1,52,13545104,35,7850,365,3,1,361,24.95,1.55
2008-53-1,53,13545104,40,9968,431,9,1,421,24.95,1.55
2009-1-1,1,13639345,63,14400,466,5,3,458,24.45,0.52
2009-2-1,2,13639345,62,14173,438,18,1,419,24.45,0.52
2009-3-1,3,13639345,91,14493,503,31,3,469,24.45,0.52
2009-4-1,4,13639345,149,13936,649,61,16,572,24.45,0.52
2009-5-1,5,13639345,204,15920,573,82,20,471,24.45,0.52
2009-6-1,6,13639345,254,16438,556,107,33,416,34.15,0.98
2009-7-1,7,13639345,279,16157,647,108,42,497,34.15,0.98
2009-8-1,8,13639345,377,16150,604,117,47,440,34.15,0.98
2009-9-1,9,13639345,432,16740,637,93,59,485,34.15,0.98
2009-10-1,10,13639345,268,16319,566,51,55,460,41.35,2.38
2009-11-1,11,13639345,252,14632,506,44,60,402,41.35,2.38
2009-12-1,12,13639345,178,12666,454,19,33,402,41.35,2.38
2009-13-1,13,13639345,178,15434,340,22,24,294,41.35,2.38
2009-14-1,14,13639345,119,11751,304,12,4,288,49.65,4.09
2009-15-1,15,13639345,85,15147,324,6,24,294,49.65,4.09
2009-16-1,16,13639345,90,13976,305,6,7,292,49.65,4.09
2009-17-1,17,13639345,148,14903,1336,131,23,1182,49.65,4.09
2009-18-1,18,13639345,127,14436,1601,163,19,1419,49.65,4.09
2009-19-1,19,13639345,116,10285,695,75,5,615,61.43,3.61
2009-20-1,20,13639345,96,10854,879,93,1,785,61.43,3.61
2009-21-1,21,13639345,85,9453,557,54,0,503,61.43,3.61
2009-22-1,22,13639345,47,9553,486,45,0,441,61.43,3.61
2009-23-1,23,13639345,39,9225,362,40,0,322,71.18,5.32
2009-24-1,24,13639345,26,8933,316,52,0,264,71.18,5.32
2009-25-1,25,13639345,46,9665,361,100,0,261,71.18,5.32
2009-26-1,26,13639345,38,9274,322,108,0,214,71.18,5.32
2009-27-1,27,13639345,37,9160,317,83,0,234,71.65,4.04
2009-28-1,28,13639345,50,8690,447,135,1,311,71.65,4.04
2009-29-1,29,13639345,64,9326,422,126,0,296,71.65,4.04
2009-30-1,30,13639345,54,9342,482,148,0,334,71.65,4.04
2009-31-1,31,13639345,46,8661,434,91,0,343,71.65,4.04
2009-32-1,32,13639345,79,10245,369,58,0,311,71.18,4.51
2009-33-1,33,13639345,117,11490,317,43,0,274,71.18,4.51
2009-34-1,34,13639345,641,14900,450,110,0,340,71.18,4.51
2009-35-1,35,13639345,516,13610,458,129,0,329,71.18,4.51
2009-36-1,36,13639345,610,15278,476,129,0,347,64.25,2.6
2009-37-1,37,13639345,652,13911,582,170,0,412,64.25,2.6
2009-38-1,38,13639345,933,17778,672,202,0,470,64.25,2.6
2009-39-1,39,13639345,1002,19431,738,302,0,436,64.25,2.6
2009-40-1,40,13639345,2602,36433,1053,526,1,526,46.73,5.94
2009-41-1,41,13639345,3878,37300,1372,665,0,707,46.73,5.94
2009-42-1,42,13639345,4409,39132,1574,768,1,805,46.73,5.94
2009-43-1,43,13639345,3135,37981,1214,437,1,776,46.73,5.94
2009-44-1,44,13639345,2561,36841,1202,298,0,904,46.73,5.94
2009-45-1,45,13639345,1709,35246,883,158,0,725,45.75,1.21
2009-46-1,46,13639345,984,33381,773,81,0,692,45.75,1.21
2009-47-1,47,13639345,678,26722,556,44,0,512,45.75,1.21
2009-48-1,48,13639345,760,34851,591,24,0,567,45.75,1.21
2009-49-1,49,13639345,574,29701,508,12,0,496,23.88,1.91
2009-50-1,50,13639345,453,30037,511,19,0,492,23.88,1.91
2009-51-1,51,13639345,364,19605,441,13,0,428,23.88,1.91
2009-52-1,52,13639345,381,21295,425,14,0,411,23.88,1.91
2010-1-1,1,13735194,418,23420,399,9,0,390,22.1,1.07
2010-2-1,2,13735194,360,30523,411,12,0,399,22.1,1.07
2010-3-1,3,13735194,471,30925,466,12,0,454,22.1,1.07
2010-4-1,4,13735194,443,30222,456,14,1,441,22.1,1.07
2010-5-1,5,13735194,682,32503,579,17,0,562,22.1,1.07
2010-6-1,6,13735194,691,32135,515,18,3,494,24.65,1.07
2010-7-1,7,13735194,707,32830,559,25,2,532,24.65,1.07
2010-8-1,8,13735194,650,33953,479,22,0,457,24.65,1.07
2010-9-1,9,13735194,764,32608,490,32,0,458,24.65,1.07
2010-10-1,10,13735194,542,31457,481,38,0,443,41.83,2.21
2010-11-1,11,13735194,548,28398,417,23,0,394,41.83,2.21
2010-12-1,12,13735194,379,29843,416,18,0,398,41.83,2.21
2010-13-1,13,13735194,323,27827,367,19,0,348,41.83,2.21
2010-14-1,14,13735194,302,30290,313,8,0,305,56.3,3.31
2010-15-1,15,13735194,236,27527,283,11,0,272,56.3,3.31
2010-16-1,16,13735194,195,26761,239,3,0,236,56.3,3.31
2010-17-1,17,13735194,207,25134,194,0,0,194,56.3,3.31
2010-18-1,18,13735194,172,25217,211,3,0,208,56.3,3.31
2010-19-1,19,13735194,222,22006,204,2,0,202,60.7,4.51
2010-20-1,20,13735194,163,20916,200,0,0,200,60.7,4.51
2010-21-1,21,13735194,146,17896,189,0,0,189,60.7,4.51
2010-22-1,22,13735194,89,15710,163,0,0,163,60.7,4.51
2010-23-1,23,13735194,122,21007,195,0,0,195,73.68,6.79
2010-24-1,24,13735194,90,19751,140,0,0,140,73.68,6.79
2010-25-1,25,13735194,98,19513,147,0,0,147,73.68,6.79
2010-26-1,26,13735194,80,17584,147,0,0,147,73.68,6.79
2010-27-1,27,13735194,76,16531,151,0,0,151,76.95,5.81
2010-28-1,28,13735194,80,16531,135,3,0,132,76.95,5.81
2010-29-1,29,13735194,68,16751,165,0,0,165,76.95,5.81
2010-30-1,30,13735194,111,17304,153,0,0,153,76.95,5.81
2010-31-1,31,13735194,54,15602,144,2,0,142,76.95,5.81
2010-32-1,32,13735194,60,15753,172,1,0,171,76.98,3.29
2010-33-1,33,13735194,51,17177,137,0,0,137,76.98,3.29
2010-34-1,34,13735194,84,17971,194,1,0,193,76.98,3.29
2010-35-1,35,13735194,86,16283,197,0,0,197,76.98,3.29
2010-36-1,36,13735194,94,14350,209,0,0,209,66.58,4.61
2010-37-1,37,13735194,109,18051,253,2,0,251,66.58,4.61
2010-38-1,38,13735194,124,16458,246,0,1,245,66.58,4.61
2010-39-1,39,13735194,151,17663,215,0,0,215,66.58,4.61
2010-40-1,40,13735194,216,22989,229,0,0,229,56.33,0.81
2010-41-1,41,13735194,227,22966,241,0,0,241,56.33,0.81
2010-42-1,42,13735194,241,23755,239,2,0,237,56.33,0.81
2010-43-1,43,13735194,213,27160,277,1,0,276,56.33,0.81
2010-44-1,44,13735194,178,26682,273,2,1,270,56.33,0.81
2010-45-1,45,13735194,306,27431,301,0,0,301,41.2,1.73
2010-46-1,46,13735194,270,26810,297,0,2,295,41.2,1.73
2010-47-1,47,13735194,162,16305,277,1,1,275,41.2,1.73
2010-48-1,48,13735194,323,24254,290,6,2,282,41.2,1.73
2010-49-1,49,13735194,318,25257,358,12,2,344,26.78,0.68
2010-50-1,50,13735194,362,24839,363,36,7,320,26.78,0.68
2010-51-1,51,13735194,335,19229,373,49,6,318,26.78,0.68
2010-52-1,52,13735194,375,16832,442,68,8,366,26.78,0.68
2011-1-1,1,13787645,389,23319,442,74,17,351,22.3,0.84
2011-2-1,2,13787645,380,23160,537,130,31,376,22.3,0.84
2011-3-1,3,13787645,489,25446,536,125,51,360,22.3,0.84
2011-4-1,4,13787645,878,27274,715,184,72,459,22.3,0.84
2011-5-1,5,13787645,862,21304,621,168,69,384,22.3,0.84
2011-6-1,6,13787645,943,26846,651,147,64,440,27.63,1.66
2011-7-1,7,13787645,1186,27620,638,148,82,408,27.63,1.66
2011-8-1,8,13787645,1276,28923,640,121,67,452,27.63,1.66
2011-9-1,9,13787645,1056,28628,581,92,56,433,27.63,1.66
2011-10-1,10,13787645,838,25236,551,73,57,421,40.35,1.74
2011-11-1,11,13787645,500,22702,543,57,45,441,40.35,1.74
2011-12-1,12,13787645,353,20636,417,28,25,364,40.35,1.74
2011-13-1,13,13787645,257,18668,390,23,14,353,40.35,1.74
2011-14-1,14,13787645,230,20210,375,19,6,350,51.78,4.02
2011-15-1,15,13787645,196,20092,322,8,1,313,51.78,4.02
2011-16-1,16,13787645,148,19542,267,1,4,262,51.78,4.02
2011-17-1,17,13787645,116,17722,273,2,3,268,51.78,4.02
2011-18-1,18,13787645,84,17202,278,3,1,274,51.78,4.02
2011-19-1,19,13787645,95,17562,236,2,0,234,60.13,5.06
2011-20-1,20,13787645,91,15614,198,0,0,198,60.13,5.06
2011-21-1,21,13787645,73,12445,222,1,0,221,60.13,5.06
2011-22-1,22,13787645,25,9266,165,0,0,165,60.13,5.06
2011-23-1,23,13787645,26,9920,168,0,0,168,72.6,4.23
2011-24-1,24,13787645,8,9092,152,1,0,151,72.6,4.23
2011-25-1,25,13787645,24,8827,131,0,0,131,72.6,4.23
2011-26-1,26,13787645,8,9478,131,0,0,131,72.6,4.23
2011-27-1,27,13787645,10,8193,117,0,0,117,80.83,3.05
2011-28-1,28,13787645,8,9637,162,0,0,162,80.83,3.05
2011-29-1,29,13787645,18,8610,149,0,0,149,80.83,3.05
2011-30-1,30,13787645,19,9274,126,0,0,126,80.83,3.05
2011-31-1,31,13787645,11,7991,136,0,0,136,80.83,3.05
2011-32-1,32,13787645,12,9093,140,1,0,139,76.15,3.46
2011-33-1,33,13787645,8,9203,141,0,0,141,76.15,3.46
2011-34-1,34,13787645,17,11111,183,0,0,183,76.15,3.46
2011-35-1,35,13787645,30,10748,211,0,0,211,76.15,3.46
2011-36-1,36,13787645,59,9950,177,0,0,177,62.95,1.6
2011-37-1,37,13787645,103,11386,212,0,0,212,62.95,1.6
2011-38-1,38,13787645,56,11469,224,0,0,224,62.95,1.6
2011-39-1,39,13787645,69,11767,230,0,0,230,62.95,1.6
2011-40-1,40,13787645,223,25268,234,0,0,234,55.2,1.37
2011-41-1,41,13787645,211,25605,228,0,0,228,55.2,1.37
2011-42-1,42,13787645,184,24987,207,0,0,207,55.2,1.37
2011-43-1,43,13787645,280,28461,243,0,0,243,55.2,1.37
2011-44-1,44,13787645,303,27835,268,1,0,267,55.2,1.37
2011-45-1,45,13787645,255,28409,249,1,0,248,42.18,2.7
2011-46-1,46,13787645,220,27961,275,5,0,270,42.18,2.7
2011-47-1,47,13787645,166,19581,205,2,0,203,42.18,2.7
2011-48-1,48,13787645,276,28394,263,2,0,261,42.18,2.7
2011-49-1,49,13787645,212,26397,254,5,0,249,32.05,2.17
2011-50-1,50,13787645,333,23221,322,12,0,310,32.05,2.17
2011-51-1,51,13787645,269,19694,301,20,0,281,32.05,2.17
2011-52-1,52,13787645,342,18371,305,22,1,282,32.05,2.17
2012-1-1,1,13842669,313,22751,337,17,1,319,32.33,0.53
2012-2-1,2,13842669,364,26039,318,22,2,294,32.33,0.53
2012-3-1,3,13842669,407,25804,306,17,0,289,32.33,0.53
2012-4-1,4,13842669,464,28884,361,47,0,314,32.33,0.53
2012-5-1,5,13842669,643,27828,433,97,3,333,32.33,0.53
2012-6-1,6,13842669,747,28367,444,81,3,360,33.98,1.78
2012-7-1,7,13842669,839,28489,477,95,4,378,33.98,1.78
2012-8-1,8,13842669,807,26749,494,125,0,369,33.98,1.78
2012-9-1,9,13842669,917,27089,635,220,1,414,33.98,1.78
2012-10-1,10,13842669,859,26953,852,385,7,460,54,2.28
2012-11-1,11,13842669,679,25202,816,353,7,456,54,2.28
2012-12-1,12,13842669,396,23383,557,152,9,396,54,2.28
2012-13-1,13,13842669,273,22358,354,55,2,297,54,2.28
2012-14-1,14,13842669,211,22671,349,36,2,311,56.03,3.46
2012-15-1,15,13842669,177,23645,339,21,3,315,56.03,3.46
2012-16-1,16,13842669,165,23189,282,29,1,252,56.03,3.46
2012-17-1,17,13842669,157,24188,273,14,8,251,56.03,3.46
2012-18-1,18,13842669,143,21460,245,14,0,231,56.03,3.46
2012-19-1,19,13842669,97,16866,202,5,1,196,66.45,2.3
2012-20-1,20,13842669,77,15076,188,0,2,186,66.45,2.3
2012-21-1,21,13842669,59,12023,165,0,1,164,66.45,2.3
2012-22-1,22,13842669,26,9430,135,1,0,134,66.45,2.3
2012-23-1,23,13842669,8,10162,169,0,0,169,74.28,2.13
2012-24-1,24,13842669,9,10009,157,0,1,156,74.28,2.13
2012-25-1,25,13842669,5,9652,135,0,0,135,74.28,2.13
2012-26-1,26,13842669,6,7618,137,0,0,137,74.28,2.13
2012-27-1,27,13842669,18,8522,112,0,0,112,81.9,1.3
2012-28-1,28,13842669,15,10321,139,0,0,139,81.9,1.3
2012-29-1,29,13842669,11,8076,149,0,1,148,81.9,1.3
2012-30-1,30,13842669,14,7975,106,0,1,105,81.9,1.3
2012-31-1,31,13842669,19,7633,121,0,1,120,81.9,1.3
2012-32-1,32,13842669,9,6944,135,1,2,132,74.18,2.25
2012-33-1,33,13842669,13,7652,130,1,1,128,74.18,2.25
2012-34-1,34,13842669,54,9575,165,1,0,164,74.18,2.25
2012-35-1,35,13842669,59,10766,210,2,0,208,74.18,2.25
2012-36-1,36,13842669,67,9428,203,0,0,203,65.35,2.28
2012-37-1,37,13842669,91,10897,232,1,1,230,65.35,2.28
2012-38-1,38,13842669,76,10809,225,2,2,221,65.35,2.28
2012-39-1,39,13842669,98,10940,265,0,4,261,65.35,2.28
2012-40-1,40,13842669,254,23020,282,3,3,276,51.33,2.04
2012-41-1,41,13842669,255,22719,357,14,12,331,51.33,2.04
2012-42-1,42,13842669,323,22827,428,37,16,375,51.33,2.04
2012-43-1,43,13842669,285,21680,377,28,17,332,51.33,2.04
2012-44-1,44,13842669,378,23462,352,22,9,321,51.33,2.04
2012-45-1,45,13842669,340,22033,443,41,32,370,42.7,0.87
2012-46-1,46,13842669,415,22378,461,51,49,361,42.7,0.87
2012-47-1,47,13842669,357,16724,451,59,38,354,42.7,0.87
2012-48-1,48,13842669,510,25068,561,96,48,417,42.7,0.87
2012-49-1,49,13842669,581,25946,667,184,47,436,32.18,1.12
2012-50-1,50,13842669,670,24829,764,242,59,463,32.18,1.12
2012-51-1,51,13842669,868,20050,748,216,51,481,32.18,1.12
2012-52-1,52,13842669,1105,16028,721,208,56,457,32.18,1.12
2013-1-1,1,13902028,1173,18973,753,180,64,509,28.4,1.36
2013-2-1,2,13902028,1323,23945,840,198,61,581,28.4,1.36
2013-3-1,3,13902028,1444,25320,901,211,64,626,28.4,1.36
2013-4-1,4,13902028,1393,24362,751,123,60,568,28.4,1.36
2013-5-1,5,13902028,1282,22877,542,107,52,383,28.4,1.36
2013-6-1,6,13902028,1101,23109,676,69,57,550,30.25,1.73
2013-7-1,7,13902028,811,22076,608,34,61,513,30.25,1.73
2013-8-1,8,13902028,622,19047,559,24,44,491,30.25,1.73
2013-9-1,9,13902028,479,19019,485,26,30,429,30.25,1.73
2013-10-1,10,13902028,456,20376,439,19,29,391,35.6,1.93
2013-11-1,11,13902028,360,18950,401,19,17,365,35.6,1.93
2013-12-1,12,13902028,277,16714,353,16,19,318,35.6,1.93
2013-13-1,13,13902028,245,17177,331,14,16,301,35.6,1.93
2013-14-1,14,13902028,196,18009,335,11,8,316,46.7,4.46
2013-15-1,15,13902028,177,17329,346,10,8,328,46.7,4.46
2013-16-1,16,13902028,148,17533,304,7,6,291,46.7,4.46
2013-17-1,17,13902028,165,17443,312,4,0,308,46.7,4.46
2013-18-1,18,13902028,141,17464,347,6,0,341,46.7,4.46
2013-19-1,19,13902028,118,16690,329,2,2,325,61.05,6.08
2013-20-1,20,13902028,92,15700,280,0,3,277,61.05,6.08
2013-21-1,21,13902028,98,12034,275,0,0,275,61.05,6.08
2013-22-1,22,13902028,83,11228,220,1,0,219,61.05,6.08
2013-23-1,23,13902028,20,9479,262,0,0,262,71.48,3.64
2013-24-1,24,13902028,16,9011,229,1,0,228,71.48,3.64
2013-25-1,25,13902028,22,8749,227,1,0,226,71.48,3.64
2013-26-1,26,13902028,12,8552,183,0,0,183,71.48,3.64
2013-27-1,27,13902028,8,6554,170,0,0,170,74.43,2.85
2013-28-1,28,13902028,8,8172,190,1,0,189,74.43,2.85
2013-29-1,29,13902028,11,7565,198,0,0,198,74.43,2.85
2013-30-1,30,13902028,10,8089,171,0,0,171,74.43,2.85
2013-31-1,31,13902028,8,6735,198,0,0,198,74.43,2.85
2013-32-1,32,13902028,64,7421,197,0,0,197,74.2,3.37
2013-33-1,33,13902028,55,8322,197,2,0,195,74.2,3.37
2013-34-1,34,13902028,54,9662,197,1,0,196,74.2,3.37
2013-35-1,35,13902028,20,9035,273,1,2,270,74.2,3.37
2013-36-1,36,13902028,72,9177,239,0,0,239,69.45,2.38
2013-37-1,37,13902028,97,10547,282,1,0,281,69.45,2.38
2013-38-1,38,13902028,80,9694,255,1,0,254,69.45,2.38
2013-39-1,39,13902028,143,40035,294,1,0,293,69.45,2.38
2013-40-1,40,13902028,182,53575,341,3,1,337,52.6,2.96
2013-41-1,41,13902028,236,53162,389,0,1,388,52.6,2.96
2013-42-1,42,13902028,217,54509,378,0,4,374,52.6,2.96
2013-43-1,43,13902028,276,56159,362,2,0,360,52.6,2.96
2013-44-1,44,13902028,268,53411,423,2,3,418,52.6,2.96
2013-45-1,45,13902028,290,55026,432,8,1,423,38.25,1.46
2013-46-1,46,13902028,243,51839,405,14,0,391,38.25,1.46
2013-47-1,47,13902028,290,49916,449,22,0,427,38.25,1.46
2013-48-1,48,13902028,220,38650,374,35,1,338,38.25,1.46
2013-49-1,49,13902028,342,52074,458,45,0,413,24.93,0.95
2013-50-1,50,13902028,395,49192,442,89,0,353,24.93,0.95
2013-51-1,51,13902028,640,47082,525,133,0,392,24.93,0.95
2013-52-1,52,13902028,746,32419,487,134,0,353,24.93,0.95
2014-1-1,1,13956239,824,39270,663,189,0,474,23.75,0.5
2014-2-1,2,13956239,778,46034,643,200,0,443,23.75,0.5
2014-3-1,3,13956239,914,50290,684,177,0,507,23.75,0.5
2014-4-1,4,13956239,845,49302,592,112,0,480,23.75,0.5
2014-5-1,5,13956239,787,46911,581,96,1,484,23.75,0.5
2014-6-1,6,13956239,529,45872,526,53,4,469,22.08,1.03
2014-7-1,7,13956239,470,48624,484,40,1,443,22.08,1.03
2014-8-1,8,13956239,414,46439,453,26,1,426,22.08,1.03
2014-9-1,9,13956239,385,50992,511,23,0,488,22.08,1.03
2014-10-1,10,13956239,308,49208,427,21,5,401,36.3,0.87
2014-11-1,11,13956239,353,48081,493,23,4,466,36.3,0.87
2014-12-1,12,13956239,255,43453,355,9,0,346,36.3,0.87
2014-13-1,13,13956239,196,48527,385,12,4,369,36.3,0.87
2014-14-1,14,13956239,230,46453,386,13,5,368,51.23,3.33
2014-15-1,15,13956239,188,47436,356,13,7,336,51.23,3.33
2014-16-1,16,13956239,167,46393,369,9,7,353,51.23,3.33
2014-17-1,17,13956239,176,45368,345,11,7,327,51.23,3.33
2014-18-1,18,13956239,144,46141,352,11,9,332,51.23,3.33
2014-19-1,19,13956239,142,44271,389,10,5,374,62.13,2.71
2014-20-1,20,13956239,110,41405,338,4,5,329,62.13,2.71
2014-21-1,21,13956239,100,40274,339,4,3,332,62.13,2.71
2014-22-1,22,13956239,109,35544,315,4,4,307,62.13,2.71
2014-23-1,23,13956239,57,35702,309,0,0,309,71.4,7.64
2014-24-1,24,13956239,54,36255,295,3,0,292,71.4,7.64
2014-25-1,25,13956239,69,34357,251,1,0,250,71.4,7.64
2014-26-1,26,13956239,39,33995,272,0,0,272,71.4,7.64
2014-27-1,27,13956239,45,28554,238,0,0,238,72,2.5
2014-28-1,28,13956239,51,34721,251,2,0,249,72,2.5
2014-29-1,29,13956239,52,33388,241,2,1,238,72,2.5
2014-30-1,30,13956239,52,33413,256,0,1,255,72,2.5
2014-31-1,31,13956239,57,34197,264,0,0,264,72,2.5
2014-32-1,32,13956239,57,33309,284,0,0,284,74.58,4.51
2014-33-1,33,13956239,20,7229,327,1,0,326,74.58,4.51
2014-34-1,34,13956239,58,37628,451,0,0,451,74.58,4.51
2014-35-1,35,13956239,82,39705,680,0,0,680,74.58,4.51
2014-36-1,36,13956239,25,7184,525,3,0,522,65.05,3.44
2014-37-1,37,13956239,123,38984,540,1,0,539,65.05,3.44
2014-38-1,38,13956239,133,37482,481,2,0,479,65.05,3.44
2014-39-1,39,13956239,113,40841,461,0,1,460,65.05,3.44
2014-40-1,40,13956239,220,50272,656,6,3,647,65.05,3.44
2014-41-1,41,13956239,269,50144,695,10,1,684,55.28,3.37
2014-42-1,42,13956239,292,52114,662,11,5,646,55.28,3.37
2014-43-1,43,13956239,289,51730,633,9,4,620,55.28,3.37
2014-44-1,44,13956239,227,48190,653,10,7,636,55.28,3.37
2014-45-1,45,13956239,256,50951,736,33,7,696,34.45,0.77
2014-46-1,46,13956239,297,50984,762,46,7,709,34.45,0.77
2014-47-1,47,13956239,324,50011,1001,111,4,886,34.45,0.77
2014-48-1,48,13956239,373,37057,1122,179,6,937,34.45,0.77
2014-49-1,49,13956239,524,53967,1385,248,8,1129,34.45,0.77
2014-50-1,50,13956239,1104,53447,1855,512,12,1331,31.88,1.44
2014-51-1,51,13956239,1359,53877,2157,544,12,1601,31.88,1.44
2014-52-1,52,13956239,1197,36352,2205,542,29,1634,31.88,1.44
2014-53-1,53,13956239,1214,40268,2237,458,15,1764,31.88,1.44
2015-1-1,1,14015402,915,19350,2006,365,13,1628,28.03,0.57
2015-2-1,2,14015402,826,20583,1835,315,17,1503,28.03,0.57
2015-3-1,3,14015402,899,18139,1676,248,18,1410,28.03,0.57
2015-4-1,4,14015402,968,19665,1545,195,36,1314,28.03,0.57
2015-5-1,5,14015402,800,20777,1394,93,30,1271,28.03,0.57
2015-6-1,6,14015402,637,20667,1191,71,37,1083,24.5,1.08
2015-7-1,7,14015402,541,19687,1437,77,85,1275,24.5,1.08
2015-8-1,8,14015402,571,21082,1238,44,76,1118,24.5,1.08
2015-9-1,9,14015402,577,21201,1287,40,121,1126,24.5,1.08
2015-10-1,10,14015402,491,16657,1252,32,125,1095,42.88,1.13
2015-11-1,11,14015402,351,14729,1042,23,110,909,42.88,1.13
2015-12-1,12,14015402,318,15485,1016,24,105,887,42.88,1.13
2015-13-1,13,14015402,347,17947,837,5,76,756,42.88,1.13
2015-14-1,14,14015402,294,18586,850,2,72,776,53.93,3.08
2015-15-1,15,14015402,232,18637,717,2,44,671,53.93,3.08
2015-16-1,16,14015402,194,16638,692,2,29,661,53.93,3.08
2015-17-1,17,14015402,205,16389,626,1,25,600,53.93,3.08
2015-18-1,18,14015402,142,16223,554,1,17,536,53.93,3.08
2015-19-1,19,14015402,114,12142,542,0,5,537,60.68,6.63
2015-20-1,20,14015402,85,12767,446,0,4,442,60.68,6.63
2015-21-1,21,14015402,30,8643,403,1,4,398,60.68,6.63
2015-22-1,22,14015402,27,8282,389,1,1,387,60.68,6.63
2015-23-1,23,14015402,27,8743,369,0,1,368,72.33,5.45
2015-24-1,24,14015402,27,8836,357,0,0,357,72.33,5.45
2015-25-1,25,14015402,41,8713,311,1,0,310,72.33,5.45
2015-26-1,26,14015402,24,7735,350,0,0,350,72.33,5.45
2015-27-1,27,14015402,14,8368,297,1,0,296,75.43,5.43
2015-28-1,28,14015402,25,8232,338,1,0,337,75.43,5.43
2015-29-1,29,14015402,21,8203,293,3,0,290,75.43,5.43
2015-30-1,30,14015402,24,8251,345,17,0,328,75.43,5.43
2015-31-1,31,14015402,23,7733,316,1,1,314,75.43,5.43
2015-32-1,32,14015402,12,8226,360,1,1,358,72.1,3.76
2015-33-1,33,14015402,30,10362,335,2,1,332,72.1,3.76
2015-34-1,34,14015402,29,11010,390,2,0,388,72.1,3.76
2015-35-1,35,14015402,24,11488,482,2,2,478,72.1,3.76
2015-36-1,36,14015402,29,9105,460,5,1,454,70.7,2.62
2015-37-1,37,14015402,60,9716,458,3,1,454,70.7,2.62
2015-38-1,38,14015402,74,9220,575,1,1,573,70.7,2.62
2015-39-1,39,14015402,98,8917,569,1,2,566,70.7,2.62
2015-40-1,40,14015402,198,20672,657,4,1,652,56.05,1.64
2015-41-1,41,14015402,204,21999,724,7,5,712,56.05,1.64
2015-42-1,42,14015402,251,22388,768,15,0,753,56.05,1.64
2015-43-1,43,14015402,209,22558,795,9,7,779,56.05,1.64
2015-44-1,44,14015402,276,22555,826,6,4,816,56.05,1.64
2015-45-1,45,14015402,284,22410,748,1,1,746,44.38,4.26
2015-46-1,46,14015402,255,22085,719,2,4,713,44.38,4.26
2015-47-1,47,14015402,208,14485,645,0,1,644,44.38,4.26
2015-48-1,48,14015402,222,21097,787,5,0,782,44.38,4.26
2015-49-1,49,14015402,210,20553,781,6,2,773,35.68,4.09
2015-50-1,50,14015402,242,19332,807,9,2,796,35.68,4.09
2015-51-1,51,14015402,183,13049,710,3,3,704,35.68,4.09
2015-52-1,52,14015402,194,12590,808,8,1,799,35.68,4.09
2016-1-1,1,14036175,255,17922,810,9,3,798,27.13,0.59
2016-2-1,2,14036175,218,19054,796,23,1,772,27.13,0.59
2016-3-1,3,14036175,225,19084,828,23,7,798,27.13,0.59
2016-4-1,4,14036175,268,21533,831,37,3,791,27.13,0.59
2016-5-1,5,14036175,252,19507,958,67,11,880,27.13,0.59
2016-6-1,6,14036175,332,21296,1126,81,5,1040,35.88,0.81
2016-7-1,7,14036175,416,21759,1217,101,28,1088,35.88,0.81
2016-8-1,8,14036175,441,22558,1365,139,34,1192,35.88,0.81
2016-9-1,9,14036175,541,21483,1340,170,38,1132,35.88,0.81
2016-10-1,10,14036175,583,21393,1556,237,46,1273,46.6,1.8
2016-11-1,11,14036175,401,18376,1344,126,31,1187,46.6,1.8
2016-12-1,12,14036175,418,19005,1287,126,28,1133,46.6,1.8
2016-13-1,13,14036175,399,18739,1212,104,37,1071,46.6,1.8
2016-14-1,14,14036175,338,19369,1002,74,39,889,53.4,4.36
2016-15-1,15,14036175,316,20471,941,60,44,837,53.4,4.36
2016-16-1,16,14036175,262,20634,921,41,52,828,53.4,4.36
2016-17-1,17,14036175,201,19230,768,24,42,702,53.4,4.36
2016-18-1,18,14036175,180,18694,657,15,18,624,53.4,4.36
2016-19-1,19,14036175,140,17494,644,13,18,613,60.25,4.78
2016-20-1,20,14036175,75,12084,521,3,3,515,60.25,4.78
2016-21-1,21,14036175,36,9190,512,2,4,506,60.25,4.78
2016-22-1,22,14036175,30,7546,460,4,8,448,60.25,4.78
2016-23-1,23,14036175,40,7583,410,1,3,406,75.18,2.66
2016-24-1,24,14036175,21,8149,404,0,1,403,75.18,2.66
2016-25-1,25,14036175,26,7598,285,1,0,284,75.18,2.66
2016-26-1,26,14036175,26,7518,310,1,1,308,75.18,2.66
2016-27-1,27,14036175,26,6940,345,1,3,341,76.2,5.27
2016-28-1,28,14036175,21,7937,319,4,1,314,76.2,5.27
2016-29-1,29,14036175,13,8160,297,2,1,294,76.2,5.27
2016-30-1,30,14036175,19,8146,321,0,0,321,76.2,5.27
2016-31-1,31,14036175,22,7975,324,1,0,323,76.2,5.27
2016-32-1,32,14036175,22,8100,296,1,0,295,74.23,5.06
2016-33-1,33,14036175,14,8191,354,1,0,353,74.23,5.06
2016-34-1,34,14036175,28,10448,381,0,0,381,74.23,5.06
2016-35-1,35,14036175,35,10699,391,2,0,389,74.23,5.06
2016-36-1,36,14036175,43,10031,455,4,0,451,68.7,4.21
2016-37-1,37,14036175,33,11311,448,0,0,448,68.7,4.21
2016-38-1,38,14036175,39,11169,478,2,1,475,68.7,4.21
2016-39-1,39,14036175,34,10746,680,3,2,675,68.7,4.21
2016-40-1,40,14036175,141,21659,747,2,1,744,58.58,1.73
2016-41-1,41,14036175,155,21551,808,2,0,806,58.58,1.73
2016-42-1,42,14036175,193,22271,845,1,2,842,58.58,1.73
2016-43-1,43,14036175,162,23418,911,3,1,907,58.58,1.73
2016-44-1,44,14036175,193,22521,874,3,3,868,58.58,1.73
2016-45-1,45,14036175,207,22795,901,1,0,900,47.58,1.05
2016-46-1,46,14036175,217,21987,980,10,3,967,47.58,1.05
2016-47-1,47,14036175,218,14039,903,18,2,883,47.58,1.05
2016-48-1,48,14036175,322,23417,1050,32,3,1015,47.58,1.05
2016-49-1,49,14036175,243,20002,1119,30,2,1087,27.23,1.08
2016-50-1,50,14036175,265,20705,1137,56,4,1077,27.23,1.08
2016-51-1,51,14036175,303,16283,1278,114,11,1153,27.23,1.08
2016-52-1,52,14036175,391,14777,1482,176,16,1290,27.23,1.08
2017-1-1,1,14080513,477,16660,1627,197,18,1412,29.35,1.49
2017-2-1,2,14080513,521,18471,1864,315,29,1520,29.35,1.49
2017-3-1,3,14080513,767,20398,1850,357,43,1450,29.35,1.49
2017-4-1,4,14080513,1011,21705,1982,403,41,1538,29.35,1.49
2017-5-1,5,14080513,1304,21950,2232,487,87,1658,29.35,1.49
2017-6-1,6,14080513,1609,22988,2745,625,128,1992,39.53,0.64
2017-7-1,7,14080513,1178,21841,2865,593,177,2095,39.53,0.64
2017-8-1,8,14080513,974,21780,2457,445,191,1821,39.53,0.64
2017-9-1,9,14080513,694,22116,1959,231,134,1594,39.53,0.64
2017-10-1,10,14080513,618,20123,1766,173,153,1440,44.25,2.7
2017-11-1,11,14080513,526,18390,1731,139,176,1416,44.25,2.7
2017-12-1,12,14080513,430,19512,1546,91,177,1278,44.25,2.7
2017-13-1,13,14080513,314,19388,1379,62,169,1148,44.25,2.7
2017-14-1,14,14080513,310,20924,1299,22,116,1161,53.73,5.25
2017-15-1,15,14080513,207,19360,1119,12,87,1020,53.73,5.25
2017-16-1,16,14080513,181,19399,999,6,61,932,53.73,5.25
2017-17-1,17,14080513,162,19355,841,3,30,808,53.73,5.25
2017-18-1,18,14080513,139,17513,816,1,22,793,53.73,5.25
2017-19-1,19,14080513,65,13043,747,4,11,732,60.45,5.08
2017-20-1,20,14080513,32,10104,736,1,13,722,60.45,5.08
2017-21-1,21,14080513,21,10033,595,4,6,585,60.45,5.08
2017-22-1,22,14080513,16,6381,508,1,1,506,60.45,5.08
2017-23-1,23,14080513,20,7612,523,1,3,519,72.6,3.14
2017-24-1,24,14080513,17,7156,514,0,1,513,72.6,3.14
2017-25-1,25,14080513,11,7345,463,2,2,459,72.6,3.14
2017-26-1,26,14080513,21,7217,372,1,0,371,72.6,3.14
2017-27-1,27,14080513,13,5791,381,1,0,380,77.6,2.84
2017-28-1,28,14080513,6,7399,374,0,0,374,77.6,2.84
2017-29-1,29,14080513,9,7315,395,1,1,393,77.6,2.84
2017-30-1,30,14080513,19,6575,391,1,0,390,77.6,2.84
2017-31-1,31,14080513,20,6545,368,5,0,363,77.6,2.84
2017-32-1,32,14080513,14,6901,380,1,0,379,70.5,4.21
2017-33-1,33,14080513,12,7832,398,1,0,397,70.5,4.21
2017-34-1,34,14080513,24,9396,423,1,0,422,70.5,4.21
2017-35-1,35,14080513,13,9493,525,8,0,517,70.5,4.21
2017-36-1,36,14080513,26,8034,526,2,0,524,68.15,2.11
2017-37-1,37,14080513,25,10092,598,3,1,594,68.15,2.11
2017-38-1,38,14080513,54,10092,574,6,1,567,68.15,2.11
2017-39-1,39,14080513,50,9835,616,14,0,602,68.15,2.11
2017-40-1,40,14080513,206,23964,779,5,0,774,55.23,3.68
2017-41-1,41,14080513,230,24306,824,7,2,815,55.23,3.68
2017-42-1,42,14080513,314,26489,930,11,1,918,55.23,3.68
2017-43-1,43,14080513,340,26522,855,13,1,841,55.23,3.68
2017-44-1,44,14080513,420,29525,1008,55,5,948,55.23,3.68
2017-45-1,45,14080513,370,24924,1001,26,9,966,41.88,0.43
2017-46-1,46,14080513,497,28475,1166,43,29,1094,41.88,0.43
2017-47-1,47,14080513,489,21720,1016,61,12,943,41.88,0.43
2017-48-1,48,14080513,481,27658,1270,96,24,1150,41.88,0.43
2017-49-1,49,14080513,611,28292,1356,176,41,1139,29.73,0.48
2017-50-1,50,14080513,812,26924,1622,230,37,1355,29.73,0.48
2017-51-1,51,14080513,1103,24814,2097,507,66,1524,29.73,0.48
2017-52-1,52,14080513,1148,18108,2332,562,74,1696,29.73,0.48
2018-1-1,1,14123370,1260,19501,2664,656,125,1883,24.68,0.94
2018-2-1,2,14123370,1291,22883,2981,790,166,2025,24.68,0.94
2018-3-1,3,14123370,1713,24656,2883,655,187,2041,24.68,0.94
2018-4-1,4,14123370,2142,26241,3323,713,222,2388,24.68,0.94
2018-5-1,5,14123370,2647,30929,3840,660,380,2800,24.68,0.94
2018-6-1,6,14123370,2572,28299,3461,529,456,2476,27.43,1.93
2018-7-1,7,14123370,2425,29348,3493,435,514,2544,27.43,1.93
2018-8-1,8,14123370,1721,27742,3134,318,478,2338,27.43,1.93
2018-9-1,9,14123370,1267,26396,2550,209,446,1895,27.43,1.93
2018-10-1,10,14123370,1091,23947,2212,153,308,1751,40.9,2.06
2018-11-1,11,14123370,770,21254,1805,109,223,1473,40.9,2.06
2018-12-1,12,14123370,620,20315,1591,69,162,1360,40.9,2.06
2018-13-1,13,14123370,551,21009,1410,49,119,1242,40.9,2.06
2018-14-1,14,14123370,467,20242,1277,39,94,1144,44.08,1.58
2018-15-1,15,14123370,332,19959,1189,35,52,1102,44.08,1.58
2018-16-1,16,14123370,236,18560,1063,28,52,983,44.08,1.58
2018-17-1,17,14123370,256,18620,928,20,31,877,44.08,1.58
2018-18-1,18,14123370,161,17908,803,17,25,761,44.08,1.58
2018-19-1,19,14123370,150,17467,773,6,11,756,68.6,4.41
2018-20-1,20,14123370,155,15871,634,4,1,629,68.6,4.41
2018-21-1,21,14123370,161,12459,590,1,4,585,68.6,4.41
2018-22-1,22,14123370,134,11312,532,0,0,532,68.6,4.41
2018-23-1,23,14123370,108,12516,544,0,0,544,75.23,5.08
2018-24-1,24,14123370,87,11633,480,0,0,480,75.23,5.08
2018-25-1,25,14123370,25,11327,472,0,0,472,75.23,5.08
2018-26-1,26,14123370,43,11061,523,1,1,521,75.23,5.08
2018-27-1,27,14123370,99,10902,303,0,1,302,75.85,3.68
2018-28-1,28,14123370,61,10727,460,1,0,459,75.85,3.68
2018-29-1,29,14123370,78,12024,418,1,0,417,75.85,3.68
2018-30-1,30,14123370,40,11140,433,1,0,432,75.85,3.68
2018-31-1,31,14123370,39,10881,373,0,1,372,75.85,3.68
2018-32-1,32,14123370,93,13443,472,1,1,470,73.68,4.71
2018-33-1,33,14123370,66,13524,516,0,0,516,73.68,4.71
2018-34-1,34,14123370,171,16696,580,2,0,578,73.68,4.71
2018-35-1,35,14123370,179,17430,643,0,0,643,73.68,4.71
2018-36-1,36,14123370,205,16328,699,2,0,697,68.25,4.42
2018-37-1,37,14123370,159,17725,905,7,0,898,68.25,4.42
2018-38-1,38,14123370,125,17312,888,9,4,875,68.25,4.42
2018-39-1,39,14123370,125,16919,959,3,0,956,68.25,4.42
2018-40-1,40,14123370,265,28951,977,4,1,972,51.35,4.43
2018-41-1,41,14123370,378,33251,1053,0,0,1053,51.35,4.43
2018-42-1,42,14123370,249,27862,1193,6,0,1187,51.35,4.43
2018-43-1,43,14123370,441,34999,1251,9,0,1242,51.35,4.43
2018-44-1,44,14123370,445,33006,1292,0,0,1292,51.35,4.43
2018-45-1,45,14123370,454,32723,1358,11,3,1344,34.83,1.56
2018-46-1,46,14123370,430,32047,1512,27,0,1485,34.83,1.56
2018-47-1,47,14123370,448,25803,1365,41,0,1324,34.83,1.56
2018-48-1,48,14123370,490,31205,1688,38,1,1649,34.83,1.56
2018-49-1,49,14123370,473,33142,1747,60,4,1683,31.8,2.49
2018-50-1,50,14123370,656,31976,1922,171,1,1750,31.8,2.49
2018-51-1,51,14123370,832,30298,2454,276,1,2177,31.8,2.49
2018-52-1,52,14123370,1272,25691,2982,385,2,2595,31.8,2.49
2019-1-1,1,14167708,1177,28775,2816,317,2,2497,26.83,1.4
2019-2-1,2,14167708,1143,33015,2714,337,2,2375,26.83,1.4
2019-3-1,3,14167708,1464,34695,2655,387,5,2263,26.83,1.4
2019-4-1,4,14167708,1342,32531,2742,462,4,2276,26.83,1.4
2019-5-1,5,14167708,1413,32877,2972,674,5,2293,26.83,1.4
2019-6-1,6,14167708,1450,33768,3068,738,7,2323,23.38,1.93
2019-7-1,7,14167708,1619,34940,3303,935,15,2353,23.38,1.93
2019-8-1,8,14167708,1735,34128,3407,1010,9,2388,23.38,1.93
2019-9-1,9,14167708,1612,34698,3400,1121,17,2262,23.38,1.93
2019-10-1,10,14167708,1505,30864,3735,1110,11,2614,35.78,2.83
2019-11-1,11,14167708,1487,32815,3733,1195,30,2508,35.78,2.83
2019-12-1,12,14167708,1160,32382,3094,820,17,2257,35.78,2.83
2019-13-1,13,14167708,881,30766,2720,539,20,2161,35.78,2.83
2019-14-1,14,14167708,678,33105,2330,305,24,2001,52.68,2.48
2019-15-1,15,14167708,542,32565,1984,180,12,1792,52.68,2.48
2019-16-1,16,14167708,406,31775,1629,69,17,1543,52.68,2.48
2019-17-1,17,14167708,343,31807,1319,41,12,1266,52.68,2.48
2019-18-1,18,14167708,285,30158,783,28,5,750,52.68,2.48
2019-19-1,19,14167708,282,29284,878,7,4,867,58.78,8.9
2019-20-1,20,14167708,257,29287,981,19,3,959,58.78,8.9
2019-21-1,21,14167708,235,24503,900,8,2,890,58.78,8.9
2019-22-1,22,14167708,209,23784,815,4,2,809,58.78,8.9
2019-23-1,23,14167708,187,23661,769,3,15,751,70.5,4.46
2019-24-1,24,14167708,184,23716,703,3,0,700,70.5,4.46
2019-25-1,25,14167708,158,23714,616,2,1,613,70.5,4.46
2019-26-1,26,14167708,144,23836,297,1,2,294,70.5,4.46
2019-27-1,27,14167708,126,22303,536,5,2,529,76.48,3.58
2019-28-1,28,14167708,121,24130,559,2,0,557,76.48,3.58
2019-29-1,29,14167708,156,23848,574,7,1,566,76.48,3.58
2019-30-1,30,14167708,132,23102,492,2,0,490,76.48,3.58
2019-31-1,31,14167708,124,23656,500,2,0,498,76.48,3.58
2019-32-1,32,14167708,127,24150,511,3,0,508,73.35,5.46
2019-33-1,33,14167708,127,25428,504,4,1,499,73.35,5.46
2019-34-1,34,14167708,179,26875,586,5,0,581,73.35,5.46
2019-35-1,35,14167708,228,27701,685,4,1,680,73.35,5.46
2019-36-1,36,14167708,208,25406,743,7,0,736,71.65,3.5
2019-37-1,37,14167708,260,29905,854,1,1,852,71.65,3.5
2019-38-1,38,14167708,242,29129,945,5,1,939,71.65,3.5
2019-39-1,39,14167708,283,28673,1009,5,1,1003,71.65,3.5
